num,name,text
1,Pink Orca,Lorem proident dolor enim ullamco non veniam deserunt exercitation ad proident.
2,Vandad,Laborum do quis nulla adipisicing cupidatat eu cupidatat et aliquip id velit eiusmod cillum.
3,Tom,Dolor et ad duis magna veniam fugiat veniam id nulla ad do officia eiusmod sit. Ad ea laborum ipsum in pariatur nulla nostrud. Labore labore minim laborum dolore minim excepteur enim in adipisicing commodo et commodo minim. Ex culpa Lorem esse consequat tempor esse excepteur ipsum laborum. Labore fugiat in ad reprehenderit enim Lorem.